bs.utf8
…
Code Chunk 2:

The code below gives brief statistics on how many breweries are in each State as well as the average number of breweries per state.

There are on average 11 breweries per state with 5 states having over 28 breweries each.

breweries %>% count(State)

## # A tibble: 51 x 2
##    State     n
##    <chr> <int>
##  1 AK        7
##  2 AL        3
##  3 AR        2
##  4 AZ       11
##  5 CA       39
##  6 CO       47
##  7 CT        8
##  8 DC        1
##  9 DE        2
## 10 FL       15
## #  with 41 more rows

#average number of breweries per state
#creating brew object for quick analysis

brew_cnt = breweries %>%
   count(State) %>%
   mutate(State = ifelse(State == 'DC','MD',State))
brew_cnt

## # A tibble: 51 x 2
##    State     n
##    <chr> <int>
##  1 AK        7
##  2 AL        3
##  3 AR        2
##  4 AZ       11
##  5 CA       39
##  6 CO       47
##  7 CT        8
##  8 MD        1
##  9 DE        2
## 10 FL       15
## #  with 41 more rows
…
#create heat map of breweries per state

states_map = map_data("state")
names(states_map)[5] = 'State_Name'
states_map = left_join(states_map,state,by=NULL)

## Joining, by = "State_Name"

states_map = left_join(breweries, states_map, by = NULL)

## Joining, by = "State"

states_map

## # A tibble: 223,088 x 12
##    Brew_ID Brewery_Name City  State  long   lat group order State_Name subregion
##      <dbl> <chr>        <chr> <chr> <dbl> <dbl> <dbl> <int> <chr>      <chr>    
##  1       1 NorthGate B Minn MN    -96.4  43.5    25  7047 minnesota  <NA>     
##  2       1 NorthGate B Minn MN    -96.4  43.9    25  7048 minnesota  <NA>     
##  3       1 NorthGate B Minn MN    -96.4  44.2    25  7049 minnesota  <NA>     
##  4       1 NorthGate B Minn MN    -96.4  44.5    25  7050 minnesota  <NA>     
##  5       1 NorthGate B Minn MN    -96.4  44.6    25  7051 minnesota  <NA>     
##  6       1 NorthGate B Minn MN    -96.4  44.8    25  7052 minnesota  <NA>     
##  7       1 NorthGate B Minn MN    -96.4  45.0    25  7053 minnesota  <NA>     
##  8       1 NorthGate B Minn MN    -96.4  45.3    25  7054 minnesota  <NA>     
##  9       1 NorthGate B Minn MN    -96.4  45.3    25  7055 minnesota  <NA>     
## 10       1 NorthGate B Minn MN    -96.4  45.3    25  7056 minnesota  <NA>     
## #  with 223,078 more rows, and 2 more variables: Region <fct>, Division <fct>

states_map

## # A tibble: 223,088 x 12
##    Brew_ID Brewery_Name City  State  long   lat group order State_Name subregion
##      <dbl> <chr>        <chr> <chr> <dbl> <dbl> <dbl> <int> <chr>      <chr>    
##  1       1 NorthGate B Minn MN    -96.4  43.5    25  7047 minnesota  <NA>     
##  2       1 NorthGate B Minn MN    -96.4  43.9    25  7048 minnesota  <NA>     
##  3       1 NorthGate B Minn MN    -96.4  44.2    25  7049 minnesota  <NA>     
##  4       1 NorthGate B Minn MN    -96.4  44.5    25  7050 minnesota  <NA>     
##  5       1 NorthGate B Minn MN    -96.4  44.6    25  7051 minnesota  <NA>     
##  6       1 NorthGate B Minn MN    -96.4  44.8    25  7052 minnesota  <NA>     
##  7       1 NorthGate B Minn MN    -96.4  45.0    25  7053 minnesota  <NA>     
##  8       1 NorthGate B Minn MN    -96.4  45.3    25  7054 minnesota  <NA>     
##  9       1 NorthGate B Minn MN    -96.4  45.3    25  7055 minnesota  <NA>     
## 10       1 NorthGate B Minn MN    -96.4  45.3    25  7056 minnesota  <NA>     
## #  with 223,078 more rows, and 2 more variables: Region <fct>, Division <fct>

state_heat = left_join(state,brew_cnt, by = NULL)

## Joining, by = "State"

#merging brewery count to map data
states_map = left_join(states_map,state_heat,by= NULL)

## Joining, by = c("State", "State_Name", "Region", "Division")

states_map

## # A tibble: 227,616 x 13
##    Brew_ID Brewery_Name City  State  long   lat group order State_Name subregion
##      <dbl> <chr>        <chr> <chr> <dbl> <dbl> <dbl> <int> <chr>      <chr>    
##  1       1 NorthGate B Minn MN    -96.4  43.5    25  7047 minnesota  <NA>     
##  2       1 NorthGate B Minn MN    -96.4  43.9    25  7048 minnesota  <NA>     
##  3       1 NorthGate B Minn MN    -96.4  44.2    25  7049 minnesota  <NA>     
##  4       1 NorthGate B Minn MN    -96.4  44.5    25  7050 minnesota  <NA>     
##  5       1 NorthGate B Minn MN    -96.4  44.6    25  7051 minnesota  <NA>     
##  6       1 NorthGate B Minn MN    -96.4  44.8    25  7052 minnesota  <NA>     
##  7       1 NorthGate B Minn MN    -96.4  45.0    25  7053 minnesota  <NA>     
##  8       1 NorthGate B Minn MN    -96.4  45.3    25  7054 minnesota  <NA>     
##  9       1 NorthGate B Minn MN    -96.4  45.3    25  7055 minnesota  <NA>     
## 10       1 NorthGate B Minn MN    -96.4  45.3    25  7056 minnesota  <NA>     
## #  with 227,606 more rows, and 3 more variables: Region <fct>, Division <fct>,
## #   Brewery_Count <int>
…
